<svg width="27" height="27" viewBox="0 0 27 27" fill="none" xmlns="http://www.w3.org/2000/svg">
<path d="M26.1872 8.82502C25.6342 8.71702 25.1212 9.07802 25.0182 9.62102L22.2882 24.038H4.71223L1.98223 9.62202C1.87923 9.08002 1.35823 8.72202 0.814228 8.82602C0.271228 8.92802 -0.084772 9.45102 0.018228 9.99402L2.90223 25.225C2.99123 25.697 3.40423 26.039 3.88423 26.039H23.1152C23.5952 26.039 24.0092 25.697 24.0972 25.225L26.9822 9.99402C27.0852 9.45102 26.7292 8.92802 26.1872 8.82502Z" fill="black"/>
<path d="M6.63184 8.868C7.18484 8.868 7.63184 8.42 7.63184 7.868C7.63184 4.632 10.2648 2 13.4998 2C16.7348 2 19.3678 4.632 19.3678 7.868C19.3678 8.42 19.8148 8.868 20.3678 8.868C20.9208 8.868 21.3678 8.42 21.3678 7.868C21.3678 3.53 17.8388 0 13.4998 0C9.16084 0 5.63184 3.53 5.63184 7.868C5.63184 8.42 6.07884 8.868 6.63184 8.868Z" fill="black"/>
</svg>
