<svg width="38" height="27" viewBox="0 0 38 27" fill="none" xmlns="http://www.w3.org/2000/svg">
<path d="M28.7012 16.624C26.0599 16.624 23.9111 18.7528 23.9111 21.3696C23.9111 23.9864 26.0599 26.1152 28.7012 26.1152C31.343 26.1152 33.4913 23.9864 33.4913 21.3696C33.4913 18.7528 31.3425 16.624 28.7012 16.624ZM28.7012 23.7424C27.3804 23.7424 26.3062 22.6781 26.3062 21.3696C26.3062 20.061 27.3804 18.9968 28.7012 18.9968C30.0221 18.9968 31.0963 20.061 31.0963 21.3696C31.0963 22.6782 30.0221 23.7424 28.7012 23.7424Z" fill="black"/>
<path d="M12.3331 16.624C9.69175 16.624 7.54297 18.7528 7.54297 21.3696C7.54297 23.9864 9.69175 26.1152 12.3331 26.1152C14.9744 26.1152 17.1232 23.9864 17.1232 21.3696C17.1232 18.7528 14.9744 16.624 12.3331 16.624ZM12.3331 23.7424C11.0122 23.7424 9.93802 22.6781 9.93802 21.3696C9.93802 20.061 11.0122 18.9968 12.3331 18.9968C13.6535 18.9968 14.7281 20.061 14.7281 21.3696C14.7281 22.6782 13.6539 23.7424 12.3331 23.7424Z" fill="black"/>
<path d="M31.9279 3.0406C31.7243 2.64 31.3104 2.38727 30.8577 2.38727H24.5508V4.76006H30.1192L33.3801 11.1855L35.5205 10.1193L31.9279 3.0406Z" fill="black"/>
<path d="M25.1081 20.2227H16.0469V22.5955H25.1081V20.2227Z" fill="black"/>
<path d="M8.74044 20.2227H4.58909C3.92763 20.2227 3.3916 20.7538 3.3916 21.4091C3.3916 22.0644 3.9277 22.5955 4.58909 22.5955H8.74052C9.40198 22.5955 9.938 22.0643 9.938 21.4091C9.938 20.7537 9.4019 20.2227 8.74044 20.2227Z" fill="black"/>
<path d="M37.7485 12.9698L35.393 9.96428C35.1667 9.67478 34.8174 9.50551 34.4473 9.50551H25.7453V1.20071C25.7453 0.545393 25.2092 0.0143433 24.5478 0.0143433H4.58909C3.92763 0.0143433 3.3916 0.545466 3.3916 1.20071C3.3916 1.85596 3.9277 2.38708 4.58909 2.38708H23.3503V10.6919C23.3503 11.3472 23.8864 11.8782 24.5477 11.8782H33.8609L35.6049 14.1039V20.2226H32.2917C31.6302 20.2226 31.0942 20.7537 31.0942 21.409C31.0942 22.0643 31.6303 22.5953 32.2917 22.5953H36.8024C37.4638 22.5953 37.9999 22.0642 37.9999 21.409V13.6975C37.9999 13.4341 37.9113 13.1779 37.7485 12.9698Z" fill="black"/>
<path d="M8.66315 14.2115H3.15452C2.49306 14.2115 1.95703 14.7427 1.95703 15.3979C1.95703 16.0532 2.49313 16.5842 3.15452 16.5842H8.66308C9.32454 16.5842 9.86057 16.0531 9.86057 15.3979C9.86064 14.7427 9.32454 14.2115 8.66315 14.2115Z" fill="black"/>
<path d="M11.4164 9.54517H1.19749C0.536101 9.54517 0 10.0763 0 10.7316C0 11.3869 0.536101 11.918 1.19749 11.918H11.4164C12.0778 11.918 12.6139 11.3868 12.6139 10.7316C12.6139 10.0764 12.0778 9.54517 11.4164 9.54517Z" fill="black"/>
<path d="M13.3734 4.8786H3.15452C2.49306 4.8786 1.95703 5.40973 1.95703 6.06497C1.95703 6.72029 2.49313 7.25134 3.15452 7.25134H13.3734C14.0349 7.25134 14.5709 6.72022 14.5709 6.06497C14.571 5.40973 14.0349 4.8786 13.3734 4.8786Z" fill="black"/>
</svg>
